Análisis de Personalidad
…
distinct_function_count <- function(data, var){
  
  var <- as.symbol(var)
  counts_values_var <- data %>% group_by(!!var) %>% count %>% arrange(desc(n))
  
  total <- sum(counts_values_var$n)
  counts_values_var <- counts_values_var %>% mutate(percentage = round(n / total * 100, 3))
  
  return(counts_values_var)
}

Num_Compras_Totales_wo_Agrupar=distinct_function_count (AP_New,"Num_Compras_Totales")
print(Num_Compras_Totales_wo_Agrupar)

## # A tibble: 34 × 3
## # Groups:   Num_Compras_Totales [34]
##    Num_Compras_Totales     n percentage
##                  <int> <int>      <dbl>
##  1                   4   190       8.48
##  2                   6   176       7.86
##  3                   5   168       7.5 
##  4                  NA   157       7.01
##  5                   7   122       5.45
##  6                   3   118       5.27
##  7                  16    95       4.24
##  8                  18    94       4.20
##  9                  14    91       4.06
## 10                  20    83       3.70
## # ℹ 24 more rows
…
